TP2_3/trace.vcd
$date
     Apr 02, 2023       22:52:55
$end

$version
 SystemC 2.3.3-Accellera --- Mar  6 2023 14:52:37
$end

$timescale
     1 ns
$end

$scope module SystemC $end
$var wire    1  aaaaa  clock       $end
$var wire    1  aaaab  cpu1_itr       $end
$var wire    8  aaaac  cpu1_task [7:0]  $end
$var wire    1  aaaad  cpu2_itr       $end
$var wire    8  aaaae  cpu2_task [7:0]  $end
$var wire    8  aaaaf  cpu1_task0_state [7:0]  $end
$var wire    8  aaaag  cpu2_task0_state [7:0]  $end
$var wire    8  aaaah  cpu1_task1_state [7:0]  $end
$var wire    8  aaaai  cpu2_task1_state [7:0]  $end
$var wire    8  aaaaj  cpu1_task2_state [7:0]  $end
$var wire    8  aaaak  cpu2_task2_state [7:0]  $end
$var wire    8  aaaal  cpu1_task3_state [7:0]  $end
$var wire    8  aaaam  cpu2_task3_state [7:0]  $end
$var wire    8  aaaan  cpu1_task4_state [7:0]  $end
$var wire    8  aaaao  cpu2_task4_state [7:0]  $end
$var wire    8  aaaap  cpu1_task5_state [7:0]  $end
$var wire    8  aaaaq  cpu2_task5_state [7:0]  $end
$var wire    8  aaaar  cpu1_task6_state [7:0]  $end
$var wire    8  aaaas  cpu2_task6_state [7:0]  $end
$var wire    8  aaaat  cpu1_task7_state [7:0]  $end
$var wire    8  aaaau  cpu2_task7_state [7:0]  $end
$var wire    8  aaaav  cpu1_task8_state [7:0]  $end
$var wire    8  aaaaw  cpu2_task8_state [7:0]  $end
$var wire    8  aaaax  cpu1_task9_state [7:0]  $end
$var wire    8  aaaay  cpu2_task9_state [7:0]  $end
$var wire    8  aaaaz  cpu1_task10_state [7:0]  $end
$var wire    8  aaaba  cpu2_task10_state [7:0]  $end
$upscope $end
$enddefinitions  $end

$comment
All initial values are dumped below at time 0 sec = 0 timescale units.
$end

$dumpvars
1aaaaa
0aaaab
b1100100 aaaac
0aaaad
b1100100 aaaae
b0 aaaaf
b0 aaaag
b0 aaaah
b0 aaaai
b0 aaaaj
b0 aaaak
b0 aaaal
b0 aaaam
b0 aaaan
b0 aaaao
b0 aaaap
b0 aaaaq
b0 aaaar
b0 aaaas
b0 aaaat
b0 aaaau
b0 aaaav
b0 aaaaw
b0 aaaax
b0 aaaay
b0 aaaaz
b0 aaaba
$end

#5
0aaaaa

#10
1aaaaa

#15
0aaaaa

#20
1aaaaa

#25
0aaaaa

#30
1aaaaa

#35
0aaaaa

#40
1aaaaa

#45
0aaaaa

#50
1aaaaa

#55
0aaaaa

#60
1aaaaa

#65
0aaaaa

#70
1aaaaa

#75
0aaaaa

#80
1aaaaa

#85
0aaaaa

#90
1aaaaa
b1 aaaac
b1 aaaae

#95
0aaaaa
b1100001 aaaah
b1100001 aaaai

#100
1aaaaa

#105
0aaaaa

#110
1aaaaa

#115
0aaaaa

#120
1aaaaa

#125
0aaaaa

#130
1aaaaa

#135
0aaaaa

#140
1aaaaa

#145
0aaaaa

#150
1aaaaa

#155
0aaaaa

#160
1aaaaa

#165
0aaaaa

#170
1aaaaa

#175
0aaaaa

#180
1aaaaa

#185
0aaaaa

#190
1aaaaa

#195
0aaaaa

#200
1aaaaa

#205
0aaaaa

#210
1aaaaa

#215
0aaaaa

#220
1aaaaa

#225
0aaaaa

#230
1aaaaa

#235
0aaaaa

#240
1aaaaa

#245
0aaaaa

#250
1aaaaa

#255
0aaaaa

#260
1aaaaa

#265
0aaaaa

#270
1aaaaa

#275
0aaaaa

#280
1aaaaa

#285
0aaaaa

#290
1aaaaa

#295
0aaaaa

#300
1aaaaa

#305
0aaaaa

#310
1aaaaa

#315
0aaaaa

#320
1aaaaa

#325
0aaaaa

#330
1aaaaa

#335
0aaaaa

#340
1aaaaa

#345
0aaaaa

#350
1aaaaa

#355
0aaaaa

#360
1aaaaa

#365
0aaaaa

#370
1aaaaa

#375
0aaaaa

#380
1aaaaa

#385
0aaaaa

#390
1aaaaa

#395
0aaaaa

#400
1aaaaa

#405
0aaaaa

#410
1aaaaa

#415
0aaaaa

#420
1aaaaa

#425
0aaaaa

#430
1aaaaa

#435
0aaaaa

#440
1aaaaa

#445
0aaaaa

#450
1aaaaa

#455
0aaaaa

#460
1aaaaa

#465
0aaaaa

#470
1aaaaa

#475
0aaaaa

#480
1aaaaa

#485
0aaaaa

#490
1aaaaa

#495
0aaaaa

#500
1aaaaa

#505
0aaaaa

#510
1aaaaa

#515
0aaaaa

#520
1aaaaa

#525
0aaaaa

#530
1aaaaa

#535
0aaaaa

#540
1aaaaa

#545
0aaaaa

#550
1aaaaa

#555
0aaaaa

#560
1aaaaa

#565
0aaaaa

#570
1aaaaa

#575
0aaaaa

#580
1aaaaa

#585
0aaaaa

#590
1aaaaa

#595
0aaaaa

#600
1aaaaa

#605
0aaaaa

#610
1aaaaa

#615
0aaaaa

#620
1aaaaa

#625
0aaaaa

#630
1aaaaa

#635
0aaaaa

#640
1aaaaa

#645
0aaaaa

#650
1aaaaa

#655
0aaaaa

#660
1aaaaa

#665
0aaaaa

#670
1aaaaa

#675
0aaaaa

#680
1aaaaa

#685
0aaaaa

#690
1aaaaa

#695
0aaaaa

#700
1aaaaa

#705
0aaaaa

#710
1aaaaa

#715
0aaaaa

#720
1aaaaa

#725
0aaaaa

#730
1aaaaa

#735
0aaaaa

#740
1aaaaa

#745
0aaaaa

#750
1aaaaa

#755
0aaaaa

#760
1aaaaa

#765
0aaaaa

#770
1aaaaa

#775
0aaaaa

#780
1aaaaa

#785
0aaaaa

#790
1aaaaa

#795
0aaaaa

#800
1aaaaa

#805
0aaaaa

#810
1aaaaa

#815
0aaaaa

#820
1aaaaa

#825
0aaaaa

#830
1aaaaa

#835
0aaaaa

#840
1aaaaa

#845
0aaaaa

#850
1aaaaa

#855
0aaaaa

#860
1aaaaa

#865
0aaaaa

#870
1aaaaa

#875
0aaaaa

#880
1aaaaa

#885
0aaaaa

#890
1aaaaa

#895
0aaaaa

#900
1aaaaa

#905
0aaaaa

#910
1aaaaa

#915
0aaaaa

#920
1aaaaa

#925
0aaaaa

#930
1aaaaa

#935
0aaaaa

#940
1aaaaa

#945
0aaaaa

#950
1aaaaa

#955
0aaaaa

#960
1aaaaa

#965
0aaaaa

#970
1aaaaa

#975
0aaaaa

#980
1aaaaa

#985
0aaaaa

#990
1aaaaa

#995
0aaaaa

#1000
1aaaaa

#1005
0aaaaa

#1010
1aaaaa

#1015
0aaaaa

#1020
1aaaaa

#1025
0aaaaa

#1030
1aaaaa

#1035
0aaaaa

#1040
1aaaaa

#1045
0aaaaa

#1050
1aaaaa

#1055
0aaaaa

#1060
1aaaaa

#1065
0aaaaa

#1070
1aaaaa

#1075
0aaaaa

#1080
1aaaaa

#1085
0aaaaa

#1090
1aaaaa

#1095
0aaaaa

#1100
1aaaaa
b1100100 aaaac

#1105
0aaaaa
b1110010 aaaah

#1110
1aaaaa

#1115
0aaaaa

#1120
1aaaaa

#1125
0aaaaa

#1130
1aaaaa

#1135
0aaaaa

#1140
1aaaaa

#1145
0aaaaa

#1150
1aaaaa

#1155
0aaaaa

#1160
1aaaaa

#1165
0aaaaa

#1170
1aaaaa

#1175
0aaaaa

#1180
1aaaaa

#1185
0aaaaa

#1190
1aaaaa

#1195
0aaaaa

#1200
1aaaaa
b10 aaaac

#1205
0aaaaa
b1100001 aaaaj

#1210
1aaaaa

#1215
0aaaaa

#1220
1aaaaa

#1225
0aaaaa

#1230
1aaaaa

#1235
0aaaaa

#1240
1aaaaa

#1245
0aaaaa

#1250
1aaaaa

#1255
0aaaaa

#1260
1aaaaa

#1265
0aaaaa

#1270
1aaaaa

#1275
0aaaaa

#1280
1aaaaa

#1285
0aaaaa

#1290
1aaaaa

#1295
0aaaaa

#1300
1aaaaa

#1305
0aaaaa

#1310
1aaaaa

#1315
0aaaaa

#1320
1aaaaa

#1325
0aaaaa

#1330
1aaaaa

#1335
0aaaaa

#1340
1aaaaa

#1345
0aaaaa

#1350
1aaaaa

#1355
0aaaaa

#1360
1aaaaa

#1365
0aaaaa

#1370
1aaaaa

#1375
0aaaaa

#1380
1aaaaa

#1385
0aaaaa

#1390
1aaaaa

#1395
0aaaaa

#1400
1aaaaa

#1405
0aaaaa

#1410
1aaaaa

#1415
0aaaaa

#1420
1aaaaa

#1425
0aaaaa

#1430
1aaaaa

#1435
0aaaaa

#1440
1aaaaa

#1445
0aaaaa

#1450
1aaaaa

#1455
0aaaaa

#1460
1aaaaa

#1465
0aaaaa

#1470
1aaaaa

#1475
0aaaaa

#1480
1aaaaa

#1485
0aaaaa

#1490
1aaaaa

#1495
0aaaaa

#1500
1aaaaa

#1505
0aaaaa

#1510
1aaaaa

#1515
0aaaaa

#1520
1aaaaa

#1525
0aaaaa

#1530
1aaaaa

#1535
0aaaaa

#1540
1aaaaa

#1545
0aaaaa

#1550
1aaaaa

#1555
0aaaaa

#1560
1aaaaa

#1565
0aaaaa

#1570
1aaaaa

#1575
0aaaaa

#1580
1aaaaa

#1585
0aaaaa

#1590
1aaaaa

#1595
0aaaaa

#1600
1aaaaa

#1605
0aaaaa

#1610
1aaaaa

#1615
0aaaaa

#1620
1aaaaa

#1625
0aaaaa

#1630
1aaaaa

#1635
0aaaaa

#1640
1aaaaa

#1645
0aaaaa

#1650
1aaaaa

#1655
0aaaaa

#1660
1aaaaa

#1665
0aaaaa

#1670
1aaaaa

#1675
0aaaaa

#1680
1aaaaa

#1685
0aaaaa

#1690
1aaaaa

#1695
0aaaaa

#1700
1aaaaa

#1705
0aaaaa

#1710
1aaaaa

#1715
0aaaaa

#1720
1aaaaa

#1725
0aaaaa

#1730
1aaaaa

#1735
0aaaaa

#1740
1aaaaa

#1745
0aaaaa

#1750
1aaaaa

#1755
0aaaaa

#1760
1aaaaa

#1765
0aaaaa

#1770
1aaaaa

#1775
0aaaaa

#1780
1aaaaa

#1785
0aaaaa

#1790
1aaaaa

#1795
0aaaaa

#1800
1aaaaa

#1805
0aaaaa

#1810
1aaaaa

#1815
0aaaaa

#1820
1aaaaa

#1825
0aaaaa

#1830
1aaaaa

#1835
0aaaaa

#1840
1aaaaa

#1845
0aaaaa

#1850
1aaaaa

#1855
0aaaaa

#1860
1aaaaa

#1865
0aaaaa

#1870
1aaaaa

#1875
0aaaaa

#1880
1aaaaa

#1885
0aaaaa

#1890
1aaaaa

#1895
0aaaaa

#1900
1aaaaa

#1905
0aaaaa

#1910
1aaaaa

#1915
0aaaaa

#1920
1aaaaa

#1925
0aaaaa

#1930
1aaaaa

#1935
0aaaaa

#1940
1aaaaa

#1945
0aaaaa

#1950
1aaaaa

#1955
0aaaaa

#1960
1aaaaa

#1965
0aaaaa

#1970
1aaaaa

#1975
0aaaaa

#1980
1aaaaa

#1985
0aaaaa

#1990
1aaaaa

#1995
0aaaaa

#2000
1aaaaa

#2005
0aaaaa

#2010
1aaaaa

#2015
0aaaaa

#2020
1aaaaa

#2025
0aaaaa

#2030
1aaaaa

#2035
0aaaaa

#2040
1aaaaa

#2045
0aaaaa

#2050
1aaaaa

#2055
0aaaaa

#2060
1aaaaa

#2065
0aaaaa

#2070
1aaaaa

#2075
0aaaaa

#2080
1aaaaa

#2085
0aaaaa

#2090
1aaaaa

#2095
0aaaaa

#2100
1aaaaa

#2105
0aaaaa

#2110
1aaaaa

#2115
0aaaaa

#2120
1aaaaa

#2125
0aaaaa

#2130
1aaaaa

#2135
0aaaaa

#2140
1aaaaa

#2145
0aaaaa

#2150
1aaaaa

#2155
0aaaaa

#2160
1aaaaa

#2165
0aaaaa

#2170
1aaaaa

#2175
0aaaaa

#2180
1aaaaa

#2185
0aaaaa

#2190
1aaaaa

#2195
0aaaaa

#2200
1aaaaa

#2205
0aaaaa

#2210
1aaaaa

#2215
0aaaaa

#2220
1aaaaa

#2225
0aaaaa

#2230
1aaaaa

#2235
0aaaaa

#2240
1aaaaa

#2245
0aaaaa

#2250
1aaaaa

#2255
0aaaaa

#2260
1aaaaa

#2265
0aaaaa

#2270
1aaaaa

#2275
0aaaaa

#2280
1aaaaa

#2285
0aaaaa

#2290
1aaaaa

#2295
0aaaaa

#2300
1aaaaa

#2305
0aaaaa

#2310
1aaaaa

#2315
0aaaaa

#2320
1aaaaa

#2325
0aaaaa

#2330
1aaaaa

#2335
0aaaaa

#2340
1aaaaa

#2345
0aaaaa

#2350
1aaaaa

#2355
0aaaaa

#2360
1aaaaa

#2365
0aaaaa

#2370
1aaaaa

#2375
0aaaaa

#2380
1aaaaa

#2385
0aaaaa

#2390
1aaaaa

#2395
0aaaaa

#2400
1aaaaa

#2405
0aaaaa

#2410
1aaaaa

#2415
0aaaaa

#2420
1aaaaa

#2425
0aaaaa

#2430
1aaaaa

#2435
0aaaaa

#2440
1aaaaa

#2445
0aaaaa

#2450
1aaaaa

#2455
0aaaaa

#2460
1aaaaa

#2465
0aaaaa

#2470
1aaaaa

#2475
0aaaaa

#2480
1aaaaa

#2485
0aaaaa

#2490
1aaaaa

#2495
0aaaaa

#2500
1aaaaa

#2505
0aaaaa

#2510
1aaaaa

#2515
0aaaaa

#2520
1aaaaa

#2525
0aaaaa

#2530
1aaaaa

#2535
0aaaaa

#2540
1aaaaa

#2545
0aaaaa

#2550
1aaaaa

#2555
0aaaaa

#2560
1aaaaa

#2565
0aaaaa

#2570
1aaaaa

#2575
0aaaaa

#2580
1aaaaa

#2585
0aaaaa

#2590
1aaaaa

#2595
0aaaaa

#2600
1aaaaa

#2605
0aaaaa

#2610
1aaaaa

#2615
0aaaaa

#2620
1aaaaa

#2625
0aaaaa

#2630
1aaaaa

#2635
0aaaaa

#2640
1aaaaa

#2645
0aaaaa

#2650
1aaaaa

#2655
0aaaaa

#2660
1aaaaa

#2665
0aaaaa

#2670
1aaaaa

#2675
0aaaaa

#2680
1aaaaa

#2685
0aaaaa

#2690
1aaaaa

#2695
0aaaaa

#2700
1aaaaa

#2705
0aaaaa

#2710
1aaaaa

#2715
0aaaaa

#2720
1aaaaa

#2725
0aaaaa

#2730
1aaaaa

#2735
0aaaaa

#2740
1aaaaa

#2745
0aaaaa

#2750
1aaaaa

#2755
0aaaaa

#2760
1aaaaa

#2765
0aaaaa

#2770
1aaaaa

#2775
0aaaaa

#2780
1aaaaa

#2785
0aaaaa

#2790
1aaaaa

#2795
0aaaaa

#2800
1aaaaa

#2805
0aaaaa

#2810
1aaaaa

#2815
0aaaaa

#2820
1aaaaa

#2825
0aaaaa

#2830
1aaaaa

#2835
0aaaaa

#2840
1aaaaa

#2845
0aaaaa

#2850
1aaaaa

#2855
0aaaaa

#2860
1aaaaa

#2865
0aaaaa

#2870
1aaaaa

#2875
0aaaaa

#2880
1aaaaa

#2885
0aaaaa

#2890
1aaaaa

#2895
0aaaaa

#2900
1aaaaa

#2905
0aaaaa

#2910
1aaaaa

#2915
0aaaaa

#2920
1aaaaa

#2925
0aaaaa

#2930
1aaaaa

#2935
0aaaaa

#2940
1aaaaa

#2945
0aaaaa

#2950
1aaaaa

#2955
0aaaaa

#2960
1aaaaa

#2965
0aaaaa

#2970
1aaaaa

#2975
0aaaaa

#2980
1aaaaa

#2985
0aaaaa

#2990
1aaaaa

#2995
0aaaaa

#3000
1aaaaa

#3005
0aaaaa

#3010
1aaaaa

#3015
0aaaaa

#3020
1aaaaa

#3025
0aaaaa

#3030
1aaaaa

#3035
0aaaaa

#3040
1aaaaa

#3045
0aaaaa

#3050
1aaaaa

#3055
0aaaaa

#3060
1aaaaa

#3065
0aaaaa

#3070
1aaaaa

#3075
0aaaaa

#3080
1aaaaa

#3085
0aaaaa

#3090
1aaaaa

#3095
0aaaaa

#3100
1aaaaa
b1100100 aaaae

#3105
0aaaaa
b1110010 aaaai

#3110
1aaaaa

#3115
0aaaaa

#3120
1aaaaa

#3125
0aaaaa

#3130
1aaaaa

#3135
0aaaaa

#3140
1aaaaa

#3145
0aaaaa

#3150
1aaaaa

#3155
0aaaaa

#3160
1aaaaa

#3165
0aaaaa

#3170
1aaaaa

#3175
0aaaaa

#3180
1aaaaa

#3185
0aaaaa

#3190
1aaaaa

#3195
0aaaaa

#3200
1aaaaa
b1 aaaae

#3205
0aaaaa
b1100001 aaaai

#3210
1aaaaa
b1100100 aaaac

#3215
0aaaaa
b1110010 aaaaj

#3220
1aaaaa

#3225
0aaaaa

#3230
1aaaaa

#3235
0aaaaa

#3240
1aaaaa

#3245
0aaaaa

#3250
1aaaaa

#3255
0aaaaa

#3260
1aaaaa

#3265
0aaaaa

#3270
1aaaaa

#3275
0aaaaa

#3280
1aaaaa

#3285
0aaaaa

#3290
1aaaaa

#3295
0aaaaa

#3300
1aaaaa

#3305
0aaaaa

#3310
1aaaaa
b1 aaaac

#3315
0aaaaa
b1100001 aaaah

